// Jest Snapshot v1, https://goo.gl/fbAQLP

exports[`CrxRightPanel should render correct contents (gallery) 1`] = `
<div
  class="crx-right-panel"
>
  <div>
    <!---->
  </div>
   
  <!---->
</div>
`;

exports[`CrxRightPanel should render correct contents (review) 1`] = `
<div
  class="crx-right-panel"
>
  <!---->
   
  <div>
    <!---->
  </div>
</div>
`;
